…
Observations are the level of items in orders by user. There are user
and order variables – user ID, order ID, order day, and order hour.
There are also item variables – name, aisle, department, and some
numeric codes.

How many aisles, and which are most items from?

``` r
instacart %>%
  count(aisle) %>%
  arrange(desc(n))
```

    ## # A tibble: 134 x 2
    ##    aisle                              n
    ##    <chr>                          <int>
    ##  1 fresh vegetables              150609
    ##  2 fresh fruits                  150473
    ##  3 packaged vegetables fruits     78493
    ##  4 yogurt                         55240
    ##  5 packaged cheese                41699
    ##  6 water seltzer sparkling water  36617
    ##  7 milk                           32644
    ##  8 chips pretzels                 31269
    ##  9 soy lactosefree                26240
    ## 10 bread                          23635
    ## # … with 124 more rows
…
    ## Parsed with column specification:
    ## cols(
    ##   .default = col_double(),
    ##   day = col_character()
    ## )

    ## See spec(...) for full column specifications.

Tidied dataset

``` r
accel_df%>%tibble()
```

    ## # A tibble: 50,400 x 6
    ##     week day_id day    minute activity_counts week_type
    ##    <dbl>  <dbl> <chr>  <chr>            <dbl> <chr>    
    ##  1     1      1 Friday 1                 88.4 Weekday  
    ##  2     1      1 Friday 2                 82.2 Weekday  
    ##  3     1      1 Friday 3                 64.4 Weekday  
    ##  4     1      1 Friday 4                 70.0 Weekday  
    ##  5     1      1 Friday 5                 75.0 Weekday  
    ##  6     1      1 Friday 6                 66.3 Weekday  
    ##  7     1      1 Friday 7                 53.8 Weekday  
    ##  8     1      1 Friday 8                 47.8 Weekday  
    ##  9     1      1 Friday 9                 55.5 Weekday  
    ## 10     1      1 Friday 10                43.0 Weekday  
    ## # … with 50,390 more rows
…
# Problem 3

Load NY NOAA dataset

``` r
library(p8105.datasets)
data("ny_noaa")
```

``` r
ny_noaa%>%tibble()
```

    ## # A tibble: 2,595,176 x 7
    ##    id          date        prcp  snow  snwd tmax  tmin 
    ##    <chr>       <date>     <int> <int> <int> <chr> <chr>
    ##  1 US1NYAB0001 2007-11-01    NA    NA    NA <NA>  <NA> 
    ##  2 US1NYAB0001 2007-11-02    NA    NA    NA <NA>  <NA> 
    ##  3 US1NYAB0001 2007-11-03    NA    NA    NA <NA>  <NA> 
    ##  4 US1NYAB0001 2007-11-04    NA    NA    NA <NA>  <NA> 
    ##  5 US1NYAB0001 2007-11-05    NA    NA    NA <NA>  <NA> 
    ##  6 US1NYAB0001 2007-11-06    NA    NA    NA <NA>  <NA> 
    ##  7 US1NYAB0001 2007-11-07    NA    NA    NA <NA>  <NA> 
    ##  8 US1NYAB0001 2007-11-08    NA    NA    NA <NA>  <NA> 
    ##  9 US1NYAB0001 2007-11-09    NA    NA    NA <NA>  <NA> 
    ## 10 US1NYAB0001 2007-11-10    NA    NA    NA <NA>  <NA> 
    ## # … with 2,595,166 more rows
…
